{
  "extends": [
    "gitlab>slagit/renovate-config",
    "gitlab>slagit/renovate-config:golang"
  ],
  "packageRules": [
    {
      "extends": [
        ":semanticPrefixFix"
      ],
      "packageNames": ["docker.io/library/alpine"]
    }
  ]
}
